<svg width="14" height="9" viewBox="0 0 14 9" fill="none" xmlns="http://www.w3.org/2000/svg">
<path fill-rule="evenodd" clip-rule="evenodd" d="M11.6 1L7 5.35135L2.4 1L1 2.32432L7 8L13 2.32432L11.6 1Z" fill="#1A1A1A" stroke="#1A1A1A"/>
</svg>
