<svg width="14" height="17" viewBox="0 0 14 17" fill="none" xmlns="http://www.w3.org/2000/svg">
<path d="M13 6.76795C14.3333 7.53775 14.3333 9.46225 13 10.2321L3.25 15.8612C1.91667 16.631 0.249999 15.6688 0.249999 14.1292L0.25 2.87084C0.25 1.33123 1.91667 0.368983 3.25 1.13878L13 6.76795Z" fill="#191919"/>
</svg>
