<svg width="5" height="9" viewBox="0 0 5 9" fill="none" xmlns="http://www.w3.org/2000/svg">
<path fill-rule="evenodd" clip-rule="evenodd" d="M0 0.945946L0.945946 0L5 4.05405L0.945946 8.10811L0 7.16216L3.10811 4.05405L0 0.945946Z" fill="#696A6B"/>
</svg>
