<svg width="18" height="14" viewBox="0 0 18 14" fill="none" xmlns="http://www.w3.org/2000/svg">
<path opacity="0.15" fill-rule="evenodd" clip-rule="evenodd" d="M9 11.25C6.51487 11.25 4.5 9.23513 4.5 6.75C4.5 4.26487 6.51487 2.25 9 2.25C11.4851 2.25 13.5 4.26487 13.5 6.75C13.5 9.23513 11.4851 11.25 9 11.25ZM9 0C2.25 0 0 6.75 0 6.75C0 6.75 2.25 13.5 9 13.5C15.75 13.5 18 6.75 18 6.75C18 6.75 15.75 0 9 0ZM9 4.5C8.96175 4.5 8.92688 4.509 8.88863 4.51125C8.94938 4.68563 9 4.86675 9 5.0625C9 5.994 8.244 6.75 7.3125 6.75C7.11675 6.75 6.93563 6.69938 6.76125 6.63863C6.759 6.67688 6.75 6.71175 6.75 6.75C6.75 7.99312 7.75688 9 9 9C10.2431 9 11.25 7.99312 11.25 6.75C11.25 5.50688 10.2431 4.5 9 4.5Z" fill="#4F5355"/>
</svg>
