<svg width="14" height="14" viewBox="0 0 14 14" fill="none" xmlns="http://www.w3.org/2000/svg">
<circle cx="7" cy="7" r="7" fill="#EF2323"/>
<path d="M5.6921 4.56635L6.17712 7.77957C6.23774 8.14332 6.54087 8.44645 6.96527 8.44645C7.32902 8.44645 7.69281 8.14332 7.75343 7.77957L8.23845 4.56635C8.35968 3.7782 7.75343 3.11133 6.96527 3.11133C6.17708 3.11129 5.63144 3.7782 5.6921 4.56635Z" fill="white"/>
<path d="M6.96582 10.5683C7.36762 10.5683 7.69335 10.2426 7.69335 9.84082C7.69335 9.43901 7.36762 9.11328 6.96582 9.11328C6.56401 9.11328 6.23828 9.43901 6.23828 9.84082C6.23828 10.2426 6.56401 10.5683 6.96582 10.5683Z" fill="white"/>
</svg>
